----------------------- Factura Venta -------------------------



 • Codigo del producto: 0
 • Nombre del producto: ropa
 • Precio: 20.0
 • Cantidad comprada: 0

	 # Ropa # 
♦ Talla: s
♦ Color: blanco




------------------------ Datos de la Factura -------------------------


Cantidad Comprada: 2
Precio: 40.0
